High Dimensional SY — HighDimSY • slidR
…
    Value

    list of reduced data, projection matrix, 
         group variable, discrimination function, 
         m matrix.

    Examples

HighDimSY(iris, group = Species, targetDim = 1)
#> $reducedData
#> Source: local data frame [150 x 2]
#> Groups: Species [3]
#> 
#>           V1 Species
#>        <dbl>  <fctr>
#> 1  -2.491713  setosa
#> 2  -2.490590  setosa
#> 3  -2.313681  setosa
#> 4  -2.466945  setosa
#> 5  -2.446499  setosa
#> 6  -2.869738  setosa
#> 7  -2.378313  setosa
#> 8  -2.558495  setosa
#> 9  -2.341068  setosa
#> 10 -2.528190  setosa
#> # ... with 140 more rows
…
