SYS — SYS • hldr
…
      covest
      covariance estimator used forming M matrix

    Value

    list of reduced data, projection matrix,
group variable, discrimination function,
m matrix.

    Examples

SYS(iris, group = Species, targetDim = 1)
#> $reducedData
#> # A tibble: 150 x 2
#> # Groups:   Species [3]
#>       V1 Species
#>    <dbl> <fctr> 
#>  1 -2.49 setosa 
#>  2 -2.54 setosa 
#>  3 -2.30 setosa 
#>  4 -2.37 setosa 
#>  5 -2.40 setosa 
#>  6 -2.58 setosa 
#>  7 -2.17 setosa 
#>  8 -2.52 setosa 
#>  9 -2.27 setosa 
#> 10 -2.61 setosa 
#> # ... with 140 more rows
…
