Sliced Inverse Regression — SIR • slidR
…
    Value

    list of reduced data, projection matrix, 
         group variable, discrimination function, 
         m matrix.

    Examples

SIR(iris, group = Species, targetDim = 1)
#> $reducedData
#> Source: local data frame [150 x 2]
#> Groups: Species [3]
#> 
#>           V1 Species
#>        <dbl>  <fctr>
#> 1  0.6090820  setosa
#> 2  0.5136697  setosa
#> 3  0.5505969  setosa
#> 4  0.4814106  setosa
#> 5  0.6162917  setosa
#> 6  0.5722864  setosa
#> 7  0.5222517  setosa
#> 8  0.5624035  setosa
#> 9  0.4555768  setosa
#> 10 0.5355896  setosa
#> # ... with 140 more rows
…
