Slow Learning Algorithm — slow_learn • slidR
…
    Value

    list of reduced data, projection matrix, 
         group variable, discrimination function, 
         m matrix and dimension reduction method used.

    Examples

slow_learn(iris, group = Species, loss = conditional_loss,
          totallossValue = .1, conditionallossValue = .01, method = SYS)
#> $reducedData
#> Source: local data frame [150 x 2]
#> Groups: Species [3]
#> 
#>          V1 Species
#>       <dbl>  <fctr>
#> 1  2.563807  setosa
#> 2  2.505311  setosa
#> 3  2.354615  setosa
#> 4  2.346557  setosa
#> 5  2.497705  setosa
#> 6  2.583149  setosa
#> 7  2.216109  setosa
#> 8  2.537257  setosa
#> 9  2.237980  setosa
#> 10 2.593641  setosa
#> # ... with 140 more rows
…
