SYS — SYS • slidR
…
    Value

    list of reduced data, projection matrix, 
         group variable, discrimination function, 
         m matrix.

    Examples

SYS(iris, group = Species, targetDim = 1)
#> $reducedData
#> Source: local data frame [150 x 2]
#> Groups: Species [3]
#> 
#>           V1 Species
#>        <dbl>  <fctr>
#> 1  -2.494995  setosa
#> 2  -2.541219  setosa
#> 3  -2.304215  setosa
#> 4  -2.373285  setosa
#> 5  -2.400575  setosa
#> 6  -2.580892  setosa
#> 7  -2.170983  setosa
#> 8  -2.515901  setosa
#> 9  -2.270603  setosa
#> 10 -2.609199  setosa
#> # ... with 140 more rows
…
